80100000 .text
801077e0 .rodata
80109000 .data
8010b540 .bss
00000000 .debug_line
00000000 .debug_info
00000000 .debug_abbrev
00000000 .debug_aranges
00000000 .debug_str
00000000 .debug_loc
00000000 .debug_ranges
00000000 .comment
00000000 bio.c
00000000 console.c
8010b540 cons
8010b578 panicked
80100410 consputc.part.0
801005a0 printint
80107850 digits.1603
00000000 exec.c
00000000 file.c
00000000 fs.c
801011c0 bfree
80101240 balloc
80101350 iget
80101440 bmap
80101d80 namex
00000000 ide.c
80102080 idestart
8010b5a0 idelock
8010b580 havedisk1
8010b584 idequeue
00000000 ioapic.c
00000000 kalloc.c
00000000 kbd.c
8010b5d4 shift.1432
80107b80 shiftcode
80107a80 togglecode
80107a60 charcode.1433
80109200 normalmap
80109100 shiftmap
80109000 ctlmap
00000000 lapic.c
00000000 log.c
80102ba0 install_trans
80102c40 write_head
00000000 main.c
80102ff0 mpmain
80103030 mpenter
00000000 mp.c
80103180 mpsearch1
00000000 picirq.c
00000000 pipe.c
00000000 proc.c
801037a0 allocproc
8010b000 first.1677
8010b5ec initproc
80108008 states.1703
00000000 sleeplock.c
00000000 spinlock.c
00000000 string.c
00000000 syscall.c
80108080 syscalls
00000000 sysfile.c
801050c0 create
80105260 argfd.constprop.0
00000000 sysproc.c
00000000 trap.c
00000000 uart.c
801062a0 uartgetc
8010b5f0 uart
801062d0 uartputc.part.0
00000000 vm.c
80106ea0 walkpgdir
80106f20 mappages
80106fb0 deallocuvm.part.0
8010b440 kmap
80100290 consoleread
80106df3 vector242
8010684a vector119
8010000c entry
8010672a vector87
80106721 vector86
80104e40 safestrcpy
80105400 sys_close
80106e5f vector251
8010674e vector91
80106544 vector33
80106a33 vector162
80104010 yield
801136c0 log
80113680 kmem
80106c97 vector213
801067e7 vector108
80106320 uartinit
8010659e vector43
801028d0 lapiceoi
80106a57 vector165
80106b47 vector185
80102390 ioapicinit
80106826 vector115
80101000 fileread
80106865 vector122
80105d50 sys_sbrk
801137a0 ioapicid
801069eb vector156
80106e17 vector245
80113674 ioapic
80106b77 vector189
80106468 vector7
80106640 vector61
801064f3 vector24
80106802 vector111
80106bfb vector200
80106676 vector67
8010b01c q_ticks_max
80106913 vector138
801066b5 vector74
80103de0 sched
80104d20 memmove
8010661c vector57
80104220 waitx
80105050 syscall
80106ca3 vector214
80106796 vector99
80103a20 cpuid
80101b70 writei
80106937 vector141
80105cb0 sys_fork
8010c600 bcache
80106aab vector172
80106de7 vector241
80104a10 getcallerpcs
80105910 sys_mkdir
80106e77 vector253
80106444 vector3
80103950 incr_curr_ticks
8010643b vector2
80101ca0 namecmp
80106d3f vector227
80106c73 vector210
80105010 argstr
80106d1b vector224
8010658c vector41
801006b0 cprintf
80100e80 filedup
80102040 namei
801064d8 vector21
80100040 binit
80106ae7 vector177
80106841 vector118
80105e80 sys_waitx
80106691 vector70
80106688 vector69
80106db7 vector237
8010665b vector64
8010650e vector27
801068cb vector132
80105f30 sys_cps
80106b53 vector186
80105320 sys_read
80106cc7 vector217
80104780 add_it
80104ec0 fetchint
80107550 setupkvm
80104d80 memcpy
801074d0 freevm
80106432 vector1
80106af3 vector178
80106571 vector38
80102480 kfree
80106dc3 vector238
801039b0 mycpu
801018a0 iput
801068d7 vector133
801066ac vector73
8010695b vector144
80106e83 vector254
80101510 readsb
8010b004 nextpid
801067a8 vector101
80106c7f vector211
80103200 mpinit
80106ac3 vector174
80106dff vector243
80100df0 fileinit
80113d60 queue
801049f0 initlock
8010689b vector128
80107750 copyout
801066f4 vector81
80104060 sleep
801028f0 microdelay
80106496 vector13
801065e6 vector51
801064ad vector16
80110f60 input
80106ddb vector240
80106601 vector54
801064c6 vector19
80106757 vector92
80106e0b vector244
80101a40 stati
8010692b vector140
8010b5d8 q_ticks
80105cf0 sys_kill
801065b0 vector45
801066e2 vector79
80103510 pipeclose
80106d57 vector229
80106a03 vector158
80105450 sys_fstat
80100640 consolewrite
8010657a vector39
80106a7b vector168
80102db0 end_op
80106556 vector35
80106814 vector113
80102520 freerange
80106880 vector125
80104520 set_priority
80107370 allocuvm
80105f51 trapret
80106cbb vector216
80106652 vector63
80106505 vector26
80106ba7 vector193
801027b0 lapicinit
80106bcb vector196
80106c67 vector209
8010644d vector4
80106a93 vector170
8010b600 stack
801068fb vector136
80106481 vector10
80106c43 vector206
80101850 iunlock
80105da0 sys_sleep
80106e8f vector255
80106b17 vector181
8010662e vector59
80106718 vector85
8010670f vector84
80106b2f vector183
80106a0f vector159
80106c8b vector212
801054a0 sys_link
801065c2 vector47
80106d4b vector228
80106595 vector42
8010681d vector114
80107710 uva2ka
80106acf vector175
8010694f vector143
80100e10 filealloc
80104340 wakeup
801068b3 vector130
80106e23 vector246
80106478 vector9
80106943 vector142
8010679f vector100
80106c07 vector201
801075f0 clearpteu
80103a40 myproc
80105f60 tvinit
80106637 vector60
801064ea vector23
80101740 idup
80106dab vector236
80102790 kbdintr
80104810 remove_it
801057d0 sys_open
80106d6f vector231
8010666d vector66
80106520 vector29
80101a70 readi
801068ef vector135
80100860 consoleintr
801043b0 kill
801066d0 vector77
801015f0 ialloc
80106b0b vector180
801179e4 kpgdir
80106c5b vector208
801029a0 cmostime
80106410 uartintr
8010678d vector98
80106784 vector97
80106adb vector176
80106bb3 vector194
8010653b vector32
801179e8 end
80106bef vector199
801068bf vector131
80106e6b vector252
801010a0 filewrite
80106429 vector0
80104f60 argint
80100a80 exec
80106967 vector145
80105390 sys_write
80104c30 release
80104f00 fetchstr
801067de vector107
80106583 vector40
80104120 wait
801067b1 vector102
8010a000 entrypgdir
0010000c _start
80106613 vector56
8010667f vector68
8010645f vector6
8010b4ac _binary_initcode_end
80100000 multiboot_header
801068a7 vector129
80103d20 scheduler
80101cc0 dirlookup
80106bd7 vector197
80100ed0 fileclose
80102d40 begin_op
801069bb vector152
801075d0 kvmalloc
80106d63 vector230
80104d90 strncmp
80106568 vector37
80106c37 vector205
80106a27 vector161
801171a0 tickslock
801035b0 pipewrite
80104de0 strncpy
8010669a vector71
80107620 copyuvm
80111000 ftable
80106a1b vector160
80104fb0 argptr
80106caf vector215
801069f7 vector157
801052b0 sys_dup
8010680b vector112
80100390 panic
801038c0 forkret
80106b23 vector182
8010648f vector12
80104cd0 memcmp
801026b0 kbdgetc
801067f0 vector109
801064cf vector20
80103bf0 fork
801065f8 vector53
801064bd vector18
0000008a _binary_entryother_size
801137c0 cpus
80104950 releasesleep
80106772 vector95
80104b20 holding
80111a00 sb
80104b70 acquire
80106d33 vector226
80102060 nameiparent
801065d4 vector49
801065a7 vector44
801136bc lapic
801066d9 vector78
80105f39 alltraps
80106ab7 vector173
80106838 vector117
801066fd vector82
80106d03 vector222
80106471 vector8
80106997 vector149
801016b0 iupdate
80109000 data
80104c80 memset
80106d7b vector232
80103050 main
801070f0 switchkvm
801067d5 vector106
80106ceb vector220
80106745 vector90
80106a3f vector163
80106d93 vector234
80102f20 log_write
801048f0 acquiresleep
801055f0 sys_unlink
80106649 vector62
801064fc vector25
80106be3 vector198
80106853 vector120
8010b4ac _binary_entryother_start
80102570 kinit1
801065dd vector50
801064a4 vector15
801069af vector151
80106706 vector83
8010673c vector89
80106733 vector88
80106010 trap
80105e50 sys_uptime
80106aff vector179
8010654d vector34
801065b9 vector46
801068e3 vector134
80106d0f vector223
801171e0 idt
80106cd3 vector218
80103990 pinit
801074a0 deallocuvm
80106d27 vector225
801028b0 lapicid
80106b5f vector187
80103b70 growproc
80104990 holdingsleep
80113d40 ncpu
80106529 vector30
80103a70 userinit
801000d0 bread
80106892 vector127
801036b0 piperead
801179e0 ticks
80106b9b vector192
80106a63 vector166
80100a30 consoleinit
801066c7 vector76
801066be vector75
801021f0 ideintr
80106bbf vector195
80105ee0 sys_set_priority
801069a3 vector150
80106625 vector58
80106e3b vector248
8010686e vector123
8010677b vector96
80106532 vector31
80103910 change_q_flag
80106c1f vector203
8010691f vector139
801069c7 vector153
80106a4b vector164
80104440 procdump
8010685c vector121
801063e0 uartputc
80106456 vector5
80106a6f vector167
801069df vector155
80106e47 vector249
801001f0 brelse
80106e53 vector250
80106877 vector124
801067f9 vector110
80106c2b vector204
8010b008 q_tail
80101770 ilock
80105ad0 sys_exec
80106907 vector137
8010b480 _binary_initcode_start
80104ea3 swtch
80106e2f vector247
801064e1 vector22
80106c13 vector202
80107060 seginit
80101a10 iunlockput
801066a3 vector72
8010660a vector55
80106889 vector126
80106664 vector65
80106517 vector28
8010b536 _binary_entryother_end
80106a87 vector169
801001b0 bwrite
80106d87 vector233
80105fe0 idtinit
80103ea0 exit
80105ce0 sys_wait
80105cc0 sys_exit
80101f80 dirlink
0000002c _binary_initcode_size
8010697f vector147
801048b0 initsleeplock
80102160 ideinit
801072a0 loaduvm
801067c3 vector104
8010682f vector116
80114260 ptable
80102440 ioapicenable
80104ac0 popcli
8010b030 vectors
801065ef vector52
801064b6 vector17
80106b3b vector184
80104e80 strlen
80105bd0 sys_pipe
80101550 iinit
801033e0 picinit
80106c4f vector207
80107220 inituvm
80106b83 vector190
80106dcf vector239
80106769 vector94
80106760 vector93
80102ca0 initlog
80106b6b vector188
801065cb vector48
80102290 iderw
80106cdf vector219
8010698b vector148
80106cf7 vector221
80102640 kalloc
80104590 cps
801119a0 devsw
80105d30 sys_getpid
801066eb vector80
80106a9f vector171
801069d3 vector154
8010655f vector36
80103400 pipealloc
80106d9f vector235
801067cc vector105
80105a20 sys_chdir
80111a20 icache
80106973 vector146
80106b8f vector191
801067ba vector103
80105980 sys_mknod
80102900 lapicstartap
80107110 switchuvm
80104a70 pushcli
801025e0 kinit2
80106488 vector11
8010649d vector14
80100fb0 filestat
